password: mnaGGkg*g?t9wP8F
alias: camride

SHA1: 2D:91:88:5D:2B:4B:6F:21:90:33:46:FE:00:A3:C8:E8:1D:43:30:0B
SHA1-debug-fikran: C9:87:58:D2:70:B1:E5:53:43:73:CC:A2:83:D2:91:EF:A8:C1:24:99

keytool -list -v -keystore keystore.jks -alias camride
keytool -list -v -keystore C:\Users\Fikran\.android\debug.keystore -alias androiddebugkey -storepass android -keypass android


keytool -exportcert -alias androiddebugkey -keystore C:\Users\Fikran\.android\debug.keystore | openssl sha1 -binary | openssl base64
keytool -exportcert -alias camride -keystore D:\Documents\workspace\camride\keystore.jks | openssl sha1 -binary | openssl base64

Alias name: camride
Creation date: 04 Agu 16
Entry type: PrivateKeyEntry
Certificate chain length: 1
Certificate[1]:
Owner: CN=Arizka Dikson, OU=CEO, O=Mobilus Interactive, L=Bandung, ST=Jawa Barat, C=62
Issuer: CN=Arizka Dikson, OU=CEO, O=Mobilus Interactive, L=Bandung, ST=Jawa Barat, C=62
Serial number: 485ad9a1
Valid from: Thu Aug 04 14:24:06 ICT 2016 until: Mon Jul 29 14:24:06 ICT 2041
Certificate fingerprints:
         MD5:  1E:63:5C:85:27:17:5C:E7:DD:48:F0:41:48:2D:B3:6C
         SHA1: 2D:91:88:5D:2B:4B:6F:21:90:33:46:FE:00:A3:C8:E8:1D:43:30:0B
         SHA256: 28:26:5B:14:63:CD:B7:78:17:0F:45:2E:5E:D4:B0:0F:E8:BC:34:53:AF:40:32:F7:F5:A2:EA:C4:CE:B4:7D:10
         Signature algorithm name: SHA256withRSA
         Version: 3

Extensions:

#1: ObjectId: 2.5.29.14 Criticality=false
SubjectKeyIdentifier [
KeyIdentifier [
0000: 5E 5E B5 B7 C6 70 4F EE   3F 7D 04 E6 C9 B3 31 F6  ^^...pO.?.....1.
0010: 21 75 CC 76                                        !u.v
]
]
